==================================================
****** RTMP STREAMER CERTIFICATE ******
==================================================
****** General info ******
==================================================
>>> COMPANY: -------------- [Streamaxia] 
>>> AUTHOR: --------------- [Streamaxia] 
>>> AUTHOR CONTACT: ------- [http://www.streamaxia.com/contact-us/] 
>>> CLIENT: --------------- [FreeDeveloper] 
>>> CLIENT CONTACT: ------- [contact@streamaxia.com] 
==================================================
****** SDK Settings ******
==================================================
>>> START DATE: --------------------------- [26 October 2017] 
>>> EXPIRATION DATE: ---------------------- [10 November 2017] 
>>> VALID FOR: ---------------------------- [15] DAYS 
>>> IS LOCKED ON CERTAIN BUNDLE IDs: ------ [YES] 
>>> HAS LIMITED STREAMING TIME: ------ [2 HOURS] 
==================================================
****** Locked on the following bundle IDs ******
==================================================
>>> [1] com.txlabz.com.hydeparkmillionaireincapp.hydeparkcorner 
==================================================
****** Active features ******
==================================================
>>> [1] Adaptive Bit Rate 
----------------------------------------
Manage automatically the streaming bit rate, according to available bandwidth.
----------------------------------------

>>> [2] Save Video Locally 
----------------------------------------
The streamed video is saved on the device's local memory.
----------------------------------------

>>> [3] Tap To Focus 
----------------------------------------
Tap to focus the camera during streaming.
----------------------------------------

==================================================
